EESchema Schematic File Version 4
EELAYER 30 0
EELAYER END
$Descr A4 11693 8268
encoding utf-8
Sheet 3 3
Title ""
Date ""
Rev ""
Comp ""
Comment1 ""
Comment2 ""
Comment3 ""
Comment4 ""
$EndDescr
$Comp
L 74xx:74LS125 U301
U 1 1 60861D10
P 3950 3000
F 0 "U301" H 3950 3225 50  0000 C CNN
F 1 "74LS125" H 3950 3316 50  0000 C CNN
F 2 "" H 3950 3000 50  0001 C CNN
F 3 "http://www.ti.com/lit/gpn/sn74LS125" H 3950 3000 50  0001 C CNN
	1    3950 3000
	-1   0    0    1   
$EndComp
$Comp
L Device:Speaker LS301
U 1 1 60862D20
P 9000 3700
F 0 "LS301" H 9170 3696 50  0000 L CNN
F 1 "Speaker" H 9170 3605 50  0000 L CNN
F 2 "" H 9000 3500 50  0001 C CNN
F 3 "~" H 8990 3650 50  0001 C CNN
	1    9000 3700
	1    0    0    -1  
$EndComp
$Comp
L LED:WS2812B D301
U 1 1 60864564
P 2500 3700
F 0 "D301" H 2844 3746 50  0000 L CNN
F 1 "WS2812B" H 2844 3655 50  0000 L CNN
F 2 "LED_SMD:LED_WS2812B_PLCC4_5.0x5.0mm_P3.2mm" H 2550 3400 50  0001 L TNN
F 3 "https://cdn-shop.adafruit.com/datasheets/WS2812B.pdf" H 2600 3325 50  0001 L TNN
	1    2500 3700
	1    0    0    -1  
$EndComp
$Comp
L power:GND #PWR0307
U 1 1 60865748
P 6950 4950
F 0 "#PWR0307" H 6950 4700 50  0001 C CNN
F 1 "GND" H 6955 4777 50  0000 C CNN
F 2 "" H 6950 4950 50  0001 C CNN
F 3 "" H 6950 4950 50  0001 C CNN
	1    6950 4950
	1    0    0    -1  
$EndComp
$Comp
L Connector:Conn_01x04_Male J301
U 1 1 60868EB0
P 10200 4500
F 0 "J301" H 10172 4382 50  0000 R CNN
F 1 "Conn_01x04_Male" H 10172 4473 50  0000 R CNN
F 2 "" H 10200 4500 50  0001 C CNN
F 3 "~" H 10200 4500 50  0001 C CNN
	1    10200 4500
	-1   0    0    1   
$EndComp
$Comp
L Device:Crystal Y301
U 1 1 6086A5B2
P 8800 2650
F 0 "Y301" V 8754 2781 50  0000 L CNN
F 1 "Crystal" V 8845 2781 50  0000 L CNN
F 2 "" H 8800 2650 50  0001 C CNN
F 3 "~" H 8800 2650 50  0001 C CNN
	1    8800 2650
	0    1    1    0   
$EndComp
$Comp
L Switch:SW_Push SW301
U 1 1 6086E5A2
P 5400 2600
F 0 "SW301" H 5400 2885 50  0000 C CNN
F 1 "SW_Push" H 5400 2794 50  0000 C CNN
F 2 "" H 5400 2800 50  0001 C CNN
F 3 "~" H 5400 2800 50  0001 C CNN
	1    5400 2600
	1    0    0    -1  
$EndComp
$Comp
L Memory_EEPROM:24LC256 U303
U 1 1 60874256
P 8800 5500
F 0 "U303" H 8800 5981 50  0000 C CNN
F 1 "24LC256" H 8800 5890 50  0000 C CNN
F 2 "" H 8800 5500 50  0001 C CNN
F 3 "http://ww1.microchip.com/downloads/en/devicedoc/21203m.pdf" H 8800 5500 50  0001 C CNN
	1    8800 5500
	1    0    0    -1  
$EndComp
$Comp
L MCU_Parallax:P8X32A-D40 U302
U 1 1 60860CDD
P 7000 3500
F 0 "U302" H 7000 4781 50  0000 C CNN
F 1 "P8X32A-D40" H 7000 4690 50  0000 C CNN
F 2 "Package_DIP:DIP-40_W15.24mm" H 7000 4700 50  0001 C CNN
F 3 "https://www.parallax.com/sites/default/files/downloads/P8X32A-Propeller-Datasheet-v1.4.0_0.pdf" H 7000 3500 50  0001 C CNN
	1    7000 3500
	1    0    0    -1  
$EndComp
Wire Wire Line
	7700 4000 8250 4000
Wire Wire Line
	8250 4000 8250 3700
Wire Wire Line
	8250 3700 8800 3700
Wire Wire Line
	8800 3800 8700 3800
Wire Wire Line
	8800 2500 8800 2450
Wire Wire Line
	8800 2450 8500 2450
Wire Wire Line
	8500 2450 8500 2600
Wire Wire Line
	8500 2600 7700 2600
Wire Wire Line
	7700 2700 8500 2700
Wire Wire Line
	8500 2700 8500 2900
Wire Wire Line
	8500 2900 8800 2900
Wire Wire Line
	8800 2900 8800 2800
Wire Wire Line
	6300 3000 4250 3000
Wire Wire Line
	3950 2750 3950 2300
Wire Wire Line
	3950 2300 4200 2300
Wire Wire Line
	4200 2300 4200 2400
Wire Wire Line
	3650 3000 2100 3000
Wire Wire Line
	2100 3700 2200 3700
Wire Wire Line
	2500 3400 2500 3300
Wire Wire Line
	2500 4000 2500 4100
Wire Wire Line
	6300 2700 6150 2700
Wire Wire Line
	6150 2700 6150 2750
Wire Wire Line
	5200 2600 5100 2600
Wire Wire Line
	5100 2600 5100 2700
Wire Wire Line
	10000 4300 7700 4300
Wire Wire Line
	10000 4400 7700 4400
Wire Wire Line
	10000 4600 9900 4600
Wire Wire Line
	9900 4600 9900 4700
Text GLabel 9750 4500 0    50   Input ~ 0
res
Wire Wire Line
	9750 4500 10000 4500
Wire Wire Line
	5600 2600 6300 2600
Text Label 5850 2600 0    50   ~ 0
res
Wire Wire Line
	9300 5400 9300 4200
Wire Wire Line
	9300 4200 7700 4200
Wire Wire Line
	9200 5500 9400 5500
Wire Wire Line
	9400 5500 9400 4100
Wire Wire Line
	9400 4100 7700 4100
Wire Wire Line
	9200 5600 9300 5600
Wire Wire Line
	9300 5600 9300 5900
Wire Wire Line
	9300 5900 9050 5900
Wire Wire Line
	8800 5900 8800 5800
Connection ~ 9050 5900
Wire Wire Line
	9050 5900 8800 5900
Wire Wire Line
	9050 5900 9050 6000
Wire Wire Line
	8400 5400 8300 5400
Wire Wire Line
	8300 5400 8300 5500
Wire Wire Line
	8300 5600 8400 5600
Wire Wire Line
	8400 5500 8300 5500
Connection ~ 8300 5500
Wire Wire Line
	8300 5500 8300 5600
Wire Wire Line
	8300 5600 8300 5900
Connection ~ 8300 5600
Wire Wire Line
	9200 5400 9300 5400
Connection ~ 9300 5400
$Comp
L power:GND #PWR0308
U 1 1 608B9BBF
P 8300 5900
F 0 "#PWR0308" H 8300 5650 50  0001 C CNN
F 1 "GND" H 8305 5727 50  0000 C CNN
F 2 "" H 8300 5900 50  0001 C CNN
F 3 "" H 8300 5900 50  0001 C CNN
	1    8300 5900
	1    0    0    -1  
$EndComp
$Comp
L power:GND #PWR0310
U 1 1 608B9F13
P 9050 6000
F 0 "#PWR0310" H 9050 5750 50  0001 C CNN
F 1 "GND" H 9055 5827 50  0000 C CNN
F 2 "" H 9050 6000 50  0001 C CNN
F 3 "" H 9050 6000 50  0001 C CNN
	1    9050 6000
	1    0    0    -1  
$EndComp
$Comp
L Device:R R301
U 1 1 608BA40E
P 9800 5400
F 0 "R301" V 9593 5400 50  0000 C CNN
F 1 "10k" V 9684 5400 50  0000 C CNN
F 2 "" V 9730 5400 50  0001 C CNN
F 3 "~" H 9800 5400 50  0001 C CNN
	1    9800 5400
	0    1    1    0   
$EndComp
Wire Wire Line
	9300 5400 9650 5400
Wire Wire Line
	9950 5400 10100 5400
Wire Wire Line
	10100 5400 10100 5300
$Comp
L power:+3V3 #PWR0313
U 1 1 608BC6EB
P 10100 5300
F 0 "#PWR0313" H 10100 5150 50  0001 C CNN
F 1 "+3V3" H 10115 5473 50  0000 C CNN
F 2 "" H 10100 5300 50  0001 C CNN
F 3 "" H 10100 5300 50  0001 C CNN
	1    10100 5300
	1    0    0    -1  
$EndComp
Wire Wire Line
	9100 5200 9100 5150
Wire Wire Line
	8800 5200 9100 5200
$Comp
L power:GND #PWR0312
U 1 1 608BEB04
P 9900 4700
F 0 "#PWR0312" H 9900 4450 50  0001 C CNN
F 1 "GND" H 9905 4527 50  0000 C CNN
F 2 "" H 9900 4700 50  0001 C CNN
F 3 "" H 9900 4700 50  0001 C CNN
	1    9900 4700
	1    0    0    -1  
$EndComp
$Comp
L power:GND #PWR0309
U 1 1 608BF938
P 8700 3850
F 0 "#PWR0309" H 8700 3600 50  0001 C CNN
F 1 "GND" H 8705 3677 50  0000 C CNN
F 2 "" H 8700 3850 50  0001 C CNN
F 3 "" H 8700 3850 50  0001 C CNN
	1    8700 3850
	1    0    0    -1  
$EndComp
Wire Wire Line
	8700 3850 8700 3800
Wire Wire Line
	6900 4600 6900 4700
Wire Wire Line
	6900 4700 6950 4700
Wire Wire Line
	7000 4700 7000 4600
Wire Wire Line
	6950 4950 6950 4700
Connection ~ 6950 4700
Wire Wire Line
	6950 4700 7000 4700
Wire Wire Line
	7000 2400 7000 2350
Wire Wire Line
	7000 2350 6900 2350
Wire Wire Line
	6900 2350 6900 2400
$Comp
L power:GND #PWR0304
U 1 1 608C7EE5
P 5100 2700
F 0 "#PWR0304" H 5100 2450 50  0001 C CNN
F 1 "GND" H 5105 2527 50  0000 C CNN
F 2 "" H 5100 2700 50  0001 C CNN
F 3 "" H 5100 2700 50  0001 C CNN
	1    5100 2700
	1    0    0    -1  
$EndComp
$Comp
L power:GND #PWR0302
U 1 1 608C8937
P 2500 4100
F 0 "#PWR0302" H 2500 3850 50  0001 C CNN
F 1 "GND" H 2505 3927 50  0000 C CNN
F 2 "" H 2500 4100 50  0001 C CNN
F 3 "" H 2500 4100 50  0001 C CNN
	1    2500 4100
	1    0    0    -1  
$EndComp
Wire Wire Line
	2100 3000 2100 3700
$Comp
L power:+3V3 #PWR0301
U 1 1 608CD44A
P 2500 3300
F 0 "#PWR0301" H 2500 3150 50  0001 C CNN
F 1 "+3V3" H 2515 3473 50  0000 C CNN
F 2 "" H 2500 3300 50  0001 C CNN
F 3 "" H 2500 3300 50  0001 C CNN
	1    2500 3300
	1    0    0    -1  
$EndComp
$Comp
L power:GND #PWR0303
U 1 1 608CD7DA
P 4200 2400
F 0 "#PWR0303" H 4200 2150 50  0001 C CNN
F 1 "GND" H 4205 2227 50  0000 C CNN
F 2 "" H 4200 2400 50  0001 C CNN
F 3 "" H 4200 2400 50  0001 C CNN
	1    4200 2400
	1    0    0    -1  
$EndComp
$Comp
L power:GND #PWR0305
U 1 1 608CDAB1
P 6150 2750
F 0 "#PWR0305" H 6150 2500 50  0001 C CNN
F 1 "GND" H 6155 2577 50  0000 C CNN
F 2 "" H 6150 2750 50  0001 C CNN
F 3 "" H 6150 2750 50  0001 C CNN
	1    6150 2750
	1    0    0    -1  
$EndComp
$Comp
L power:+3V3 #PWR0306
U 1 1 608CE9FE
P 6550 2350
F 0 "#PWR0306" H 6550 2200 50  0001 C CNN
F 1 "+3V3" H 6565 2523 50  0000 C CNN
F 2 "" H 6550 2350 50  0001 C CNN
F 3 "" H 6550 2350 50  0001 C CNN
	1    6550 2350
	1    0    0    -1  
$EndComp
Wire Wire Line
	6900 2350 6550 2350
Connection ~ 6900 2350
$Comp
L power:+3V3 #PWR0311
U 1 1 608D2FF1
P 9100 5150
F 0 "#PWR0311" H 9100 5000 50  0001 C CNN
F 1 "+3V3" H 9115 5323 50  0000 C CNN
F 2 "" H 9100 5150 50  0001 C CNN
F 3 "" H 9100 5150 50  0001 C CNN
	1    9100 5150
	1    0    0    -1  
$EndComp
NoConn ~ 6300 3100
NoConn ~ 6300 3200
NoConn ~ 6300 3300
NoConn ~ 6300 3400
NoConn ~ 6300 3500
NoConn ~ 6300 3600
NoConn ~ 6300 3700
NoConn ~ 6300 3800
NoConn ~ 6300 3900
NoConn ~ 6300 4000
NoConn ~ 6300 4100
NoConn ~ 6300 4200
NoConn ~ 6300 4300
NoConn ~ 6300 4400
NoConn ~ 7700 2900
NoConn ~ 7700 3000
NoConn ~ 7700 3100
NoConn ~ 7700 3200
NoConn ~ 7700 3300
NoConn ~ 7700 3400
NoConn ~ 7700 3500
NoConn ~ 7700 3600
NoConn ~ 7700 3700
NoConn ~ 7700 3800
NoConn ~ 7700 3900
NoConn ~ 2800 3700
$EndSCHEMATC
