EESchema Schematic File Version 4
EELAYER 30 0
EELAYER END
$Descr A4 11693 8268
encoding utf-8
Sheet 2 3
Title ""
Date ""
Rev ""
Comp ""
Comment1 ""
Comment2 ""
Comment3 ""
Comment4 ""
$EndDescr
$Comp
L jason:LM2937ET-3.3_NOPB U201
U 1 1 6085A99C
P 6300 1650
F 0 "U201" H 6800 1915 50  0000 C CNN
F 1 "LM2937ET-3.3_NOPB" H 6800 1824 50  0000 C CNN
F 2 "TI_National_Semiconductor-LM2937ET-3.3_NOPB-*" H 6300 2050 50  0001 L CNN
F 3 "" H 6300 2150 50  0001 L CNN
F 4 "LDO IC" H 6300 2550 50  0001 L CNN "Comp Type"
F 5 "Datasheet URL" H 6300 2650 50  0001 L CNN "Component Link 1 Description"
F 6 "http://www.ti.com/general/docs/lit/getliterature.tsp?genericPartNumber=LM2937-3.3&fileType=pdf" H 6300 2750 50  0001 L CNN "Component Link 1 URL"
F 7 "TO-220, Molded, 3 Lead, Straight" H 6300 2950 50  0001 L CNN "Package Description"
F 8 "NSUZXYTTE#*LM2937ET*-3.3" H 6300 3050 50  0001 L CNN "Package Top Marking"
F 9 "3" H 6300 3150 50  0001 L CNN "Pin Count"
F 10 "N" H 6300 3250 50  0001 L CNN "Power Wise"
F 11 "IC" H 6300 3350 50  0001 L CNN "category"
F 12 "1170814" H 6300 3450 50  0001 L CNN "ciiva ids"
F 13 "9790e182f8631944" H 6300 3550 50  0001 L CNN "library id"
F 14 "TI National Semiconductor" H 6300 3650 50  0001 L CNN "manufacturer"
F 15 "NDE0003A" H 6300 3750 50  0001 L CNN "package"
F 16 "1464077557" H 6300 3850 50  0001 L CNN "release date"
F 17 "Yes" H 6300 3950 50  0001 L CNN "rohs"
F 18 "8E3D2FDE-BFF0-43B9-9C54-47D18E5BC45B" H 6300 4050 50  0001 L CNN "vault revision"
F 19 "yes" H 6300 4150 50  0001 L CNN "imported"
	1    6300 1650
	1    0    0    -1  
$EndComp
$Comp
L jason:LM2940CT-5.0 RG201
U 1 1 6085BCF2
P 4350 1650
F 0 "RG201" H 4800 1915 50  0000 C CNN
F 1 "LM2940CT-5.0" H 4800 1824 50  0000 C CNN
F 2 "Texas_Instruments-NDE0003B-0-0-*" H 4350 2050 50  0001 L CNN
F 3 "http://www.ti.com/lit/ds/symlink/lm2940-n.pdf" H 4350 2150 50  0001 L CNN
F 4 "Reg" H 4350 2250 50  0001 L CNN "category"
F 5 "IC REG LINEAR 5V 1A TO220-3" H 4350 2350 50  0001 L CNN "digikey description"
F 6 "LM2940CT-5.0-ND" H 4350 2450 50  0001 L CNN "digikey part number"
F 7 "Yes" H 4350 2550 50  0001 L CNN "lead free"
F 8 "a765c02901b688c9" H 4350 2650 50  0001 L CNN "library id"
F 9 "Texas Instruments" H 4350 2750 50  0001 L CNN "manufacturer"
F 10 "LDO Voltage Regulators 1A LDO Reg" H 4350 2850 50  0001 L CNN "mouser description"
F 11 "926-LM2940CT-50" H 4350 2950 50  0001 L CNN "mouser part number"
F 12 "TO220-3" H 4350 3050 50  0001 L CNN "package"
F 13 "no" H 4350 3150 50  0001 L CNN "rohs"
F 14 "+125°C" H 4350 3250 50  0001 L CNN "temperature range high"
F 15 "0°C" H 4350 3350 50  0001 L CNN "temperature range low"
	1    4350 1650
	1    0    0    -1  
$EndComp
Wire Wire Line
	5150 1650 5750 1650
$Comp
L power:+3V3 #PWR0203
U 1 1 6085C868
P 7800 1350
F 0 "#PWR0203" H 7800 1200 50  0001 C CNN
F 1 "+3V3" H 7815 1523 50  0000 C CNN
F 2 "" H 7800 1350 50  0001 C CNN
F 3 "" H 7800 1350 50  0001 C CNN
	1    7800 1350
	1    0    0    -1  
$EndComp
$Comp
L power:+5V #PWR0202
U 1 1 6085CD1E
P 5750 1350
F 0 "#PWR0202" H 5750 1200 50  0001 C CNN
F 1 "+5V" H 5765 1523 50  0000 C CNN
F 2 "" H 5750 1350 50  0001 C CNN
F 3 "" H 5750 1350 50  0001 C CNN
	1    5750 1350
	1    0    0    -1  
$EndComp
$Comp
L power:GND #PWR0201
U 1 1 6085D46D
P 5700 2500
F 0 "#PWR0201" H 5700 2250 50  0001 C CNN
F 1 "GND" H 5705 2327 50  0000 C CNN
F 2 "" H 5700 2500 50  0001 C CNN
F 3 "" H 5700 2500 50  0001 C CNN
	1    5700 2500
	1    0    0    -1  
$EndComp
Wire Wire Line
	5150 1850 5250 1850
Wire Wire Line
	5250 1850 5250 2300
Wire Wire Line
	5250 2300 5700 2300
Wire Wire Line
	6800 2300 6800 1950
Wire Wire Line
	5700 2500 5700 2300
Connection ~ 5700 2300
Wire Wire Line
	5700 2300 6800 2300
Wire Wire Line
	5750 1350 5750 1650
Connection ~ 5750 1650
Wire Wire Line
	5750 1650 6400 1650
Wire Wire Line
	7800 1350 7800 1650
Wire Wire Line
	7800 1650 7200 1650
$Comp
L Connector:Conn_01x02_Male J201
U 1 1 6085E9F3
P 2800 1650
F 0 "J201" H 2908 1831 50  0000 C CNN
F 1 "Conn_01x02_Male" H 2908 1740 50  0000 C CNN
F 2 "" H 2800 1650 50  0001 C CNN
F 3 "~" H 2800 1650 50  0001 C CNN
	1    2800 1650
	1    0    0    -1  
$EndComp
Wire Wire Line
	3000 1650 4450 1650
Wire Wire Line
	3000 1750 3500 1750
Wire Wire Line
	3500 1750 3500 2300
Wire Wire Line
	3500 2300 5250 2300
Connection ~ 5250 2300
$EndSCHEMATC
